QueryID	Total Execution Time	Avg Execution Time	Number of Queries per Hour
0	7.48407143E8	2.8784890115384616E7	125.06561552152368
1	1.803954608E9	6.938286953846154E7	51.88600621374393
2	1.82497854E8	7019148.230769231	512.8827432677647
3	0.0	0.0	-1.0
4	2384393.0	91707.42307692308	39255.27377408003
5	2.885505185E9	1.1098096865384616E8	32.43799404228067
6	5.41177246E8	2.081450946153846E7	172.95627392286926
7	3.6685334E8	1.4109743846153846E7	255.14283173760936
8	1.091933508E9	4.1997442615384616E7	85.71950518437612
9	1.260562723E9	4.848318165384615E7	74.2525526831718
10	5.80818558E8	2.2339175307692308E7	161.1518755914132
11	9.02963508E8	3.4729365692307696E7	103.65867410003904
12	1.980803663E9	7.618475626923077E7	47.253547511235595
13	2.05390933E9	7.89965126923077E7	45.571631927880674
14	2.340413369E9	9.00158988076923E7	39.99293511128461
15	1.802305055E9	6.93194251923077E7	51.93349468800108
16	1.87222418E8	7200862.230769231	499.94013003293225
17	3.60903184E8	1.3880891692307692E7	259.3493328670661
18	2.42580065E8	9330002.5	385.8519866420186
19	0.0	0.0	-1.0
20	1.463569522E9	5.6291135461538464E7	63.9532311878793
21	1.800755118E9	6.925981223076923E7	51.97819462757179
22	4.140623207E9	1.5925473873076922E8	22.605292807556832
23	0.0	0.0	-1.0
24	0.0	0.0	-1.0
/////////////////////////////////////////////////////////////////////////////
QMpH = 26