Query0	 ObjectNumber 	 PredicateNumber 	 Selectivity 	 Limit 	Query1	 ObjectNumber 	 PredicateNumber 	 Selectivity 	 Limit 	Query2	 ObjectNumber 	 PredicateNumber 	 Selectivity 	 Limit 	Query3	 ObjectNumber 	 PredicateNumber 	 Selectivity 	 Limit 	Query4	 ObjectNumber 	 PredicateNumber 	 Selectivity 	 Limit 	Query5	 ObjectNumber 	 PredicateNumber 	 Selectivity 	 Limit 	Query6	 ObjectNumber 	 PredicateNumber 	 Selectivity 	 Limit 	Query7	 ObjectNumber 	 PredicateNumber 	 Selectivity 	 Limit 	Query8	 ObjectNumber 	 PredicateNumber 	 Selectivity 	 Limit 	Query9	 ObjectNumber 	 PredicateNumber 	 Selectivity 	 Limit 	Query10	 ObjectNumber 	 PredicateNumber 	 Selectivity 	 Limit 	Query11	 ObjectNumber 	 PredicateNumber 	 Selectivity 	 Limit 	Query12	 ObjectNumber 	 PredicateNumber 	 Selectivity 	 Limit 	Query13	 ObjectNumber 	 PredicateNumber 	 Selectivity 	 Limit 	Query14	 ObjectNumber 	 PredicateNumber 	 Selectivity 	 Limit 	Query15	 ObjectNumber 	 PredicateNumber 	 Selectivity 	 Limit 	Query16	 ObjectNumber 	 PredicateNumber 	 Selectivity 	 Limit 	Query17	 ObjectNumber 	 PredicateNumber 	 Selectivity 	 Limit 	Query18	 ObjectNumber 	 PredicateNumber 	 Selectivity 	 Limit 	Query19	 ObjectNumber 	 PredicateNumber 	 Selectivity 	 Limit 	Query20	 ObjectNumber 	 PredicateNumber 	 Selectivity 	 Limit 	Query21	 ObjectNumber 	 PredicateNumber 	 Selectivity 	 Limit 	Query22	 ObjectNumber 	 PredicateNumber 	 Selectivity 	 Limit 	
/////////////////////////////////////////////////////////////////////////////
3609307	1	1	2	10	180000000	1	3	1	1	29377	1	1	5	10	-1	100026	1	1	0	1	180000000	1	2	1	1000	17709	1	2	0	100	265633	1	1	4	100	507191	1	1	3	100	32347	1	1	1	100	509336	1	3	3	100	180000000	1	1	0	1000	52336	1	1	0	1	66028	1	3	1	10	3784094	1	2	1	10	1081470	1	1	0	1000	134148	1	2	1	10	47946	1	2	1	1000	959060	1	2	0	1	-1	2782830	1	1	2	10	180000000	1	2	0	1	180000000	2	3	1	10	
29835	1	3	1	10	90408	1	2	0	10	36968	1	2	4	1	-1	99964	1	1	0	1	1212671	1	3	0	100	95472	1	1	3	1000	171069	1	1	2	10	613987	1	2	2	100	39736	1	2	1	100	180000000	1	1	0	1	190325	1	3	2	1	92117	1	3	0	1000	11305670	1	2	2	10	180000000	1	2	2	100	46896	1	3	1	10	334697	1	2	0	1000	27113	1	3	1	10	881936	1	1	2	100	-1	3207764	1	2	2	100	48869	1	3	1	10	180000000	1	1	0	100	
180000000	1	3	0	100	180000000	1	1	1	100	11679	1	1	5	1	-1	90495	1	1	0	1	180000000	1	2	0	10	37872	1	1	5	10	258611	1	1	3	10	957855	1	3	4	100	51534	2	3	0	100	552485	1	1	3	1000	285751	1	1	5	1000	61017	1	2	1	1000	686260	1	1	0	10	162347921	1	1	2	100	16250	1	3	0	100	10166	1	2	4	1	27228	1	2	0	100	605822	1	1	4	10	-1	2128510	1	2	2	1000	13037	1	1	0	1000	180000000	1	3	0	1	
9649	1	3	0	10	102950	1	2	0	10	12259	1	2	0	100	-1	67308	1	1	1	100	90679	1	1	1	1000	15509	1	1	2	1	353376	1	1	4	1000	591728	2	3	4	1000	21399	1	1	0	100	453121	1	1	0	100	180000000	1	1	1	1000	24083	1	2	1	1	180000000	1	2	1	1	10304	1	3	0	10	180000000	1	2	1	1	17753	1	3	1	1000	22311	1	2	2	100	525374	1	1	0	1	-1	180000000	1	1	0	1000	11545	1	1	0	1000	180000000	1	2	0	100	
5492	1	1	1	1	180000000	1	3	0	10	9523	1	2	1	1	-1	57912	1	2	1	1	163283	1	1	1	1000	180000000	1	1	0	100	169843	1	2	1	100	301437	1	1	2	100	33502	3	3	0	100	180000000	1	1	1	100	99065	1	1	2	1000	180000000	1	3	1	1000	556760	1	1	1	10	2011641	1	1	1	1	26386	1	2	1	1000	404773	1	1	5	10	76721	1	1	2	1000	533557	1	2	5	100	-1	2866484	1	2	2	1	28278	1	2	1	1	180000000	1	3	0	1000	
6366	1	1	0	1	180000000	1	2	1	100	86251	1	1	0	100	-1	72045	1	1	0	10	180000000	3	3	1	1000	20112	1	1	3	100	158681	1	1	5	100	180000000	1	3	0	100	22023	1	1	1	100	315228	1	2	4	1	463116	1	1	5	1	38855	1	3	1	1000	8491368	1	2	2	1	180000000	1	2	2	100	180000000	1	2	0	10	8887	1	2	3	1	14129	1	2	1	1	908284	1	1	1	1000	-1	28817	1	3	1	1000	56764	1	3	1	1000	180000000	1	2	0	100	
180000000	1	3	1	1000	180000000	1	3	1	100	180000000	1	1	5	100	-1	165965	1	2	1	1000	171636	1	2	0	1	29488	1	3	2	1	627481	1	1	4	1000	180000000	1	2	1	1	30300	1	1	1	100	649020	1	1	4	1	126160	1	2	2	1000	44387	1	3	1	100	180000000	1	2	1	100	332410	1	1	1	1000	41579	1	3	0	100	398155	1	1	3	10	27332	1	1	0	100	4371821	1	2	4	1000	-1	13964	1	2	1	1000	82585	1	3	0	1	180000000	1	3	0	1000	
30184	1	3	0	100	180000000	1	1	0	1	52220	1	1	0	10	-1	112487	1	2	1	1	180000000	2	2	0	1	115329	1	1	3	1000	123472	1	1	4	1	451226	2	2	4	1000	44536	1	2	0	1000	4068941	1	2	2	10	140754	1	1	4	1	31914	1	3	1	1	7483516	1	1	2	100	180000000	1	2	1	1	12412	1	2	1	1000	5260386	1	3	0	10	180000000	1	3	0	1000	899573	1	3	5	1	-1	180000000	1	2	1	100	207063	1	3	0	1000	180000000	1	2	0	100	
180000000	1	1	1	10	52287	1	2	1	1	533019	1	1	3	1000	-1	108069	1	2	0	10	747742	1	3	1	100	34148	1	3	1	1	157233	1	1	1	1000	180000000	1	1	0	10	16265	1	1	1	1	180000000	1	3	0	100	153135	1	1	2	100	180000000	1	3	0	1	180000000	1	3	0	1	12555	1	3	1	10	11740	1	1	0	100	19787	1	3	4	10	17581	1	2	2	10	4293693	1	3	3	1000	-1	2059627	1	1	2	1	180000000	1	1	0	100	83792	1	1	1	10	
7877	1	1	0	10	180000000	1	3	0	1000	797615	1	1	1	1000	-1	77406	1	1	0	1	461046	1	3	0	1	20442	1	1	1	1000	108782	1	1	5	1	370998	1	1	4	1000	13350	1	2	0	1	80695	1	2	1	1	19453	1	3	1	100	180000000	1	2	0	100	180000000	1	1	0	1000	145388668	1	1	2	10	48890	1	3	1	10	107332	1	3	3	100	180000000	1	1	1	100	594119	1	3	3	100	-1	23868	1	3	0	1000	16912	1	2	0	1000	180000000	3	3	0	10	
4701313	1	2	2	1000	61442	1	2	1	1	26657	1	2	5	10	-1	69099	1	1	0	10	180000000	1	1	0	1	24568	1	3	2	100	309261	1	1	2	100	613872	1	3	4	10	180000000	1	1	0	1	396602	1	2	4	1000	180000000	1	1	0	100	180000000	1	2	1	100	180000000	1	3	0	1	163864	1	1	1	1000	27596	1	2	0	10	10207	1	2	3	1000	10471	1	2	2	1	2972169	1	2	0	10	-1	180000000	1	2	1	100	13910	1	1	1	100	180000000	1	1	0	1000	
47955	1	2	0	1000	119820	1	3	0	1000	198477	1	2	4	1000	-1	82175	1	2	1	1000	304399	1	1	1	1	180000000	1	1	1	1	105243	1	1	5	10	180000000	1	2	1	1	31160	1	3	0	10	411107	1	1	4	10	133384	1	2	3	1000	39992	1	2	1	1000	5321789	1	1	2	1000	849664	1	1	1	1000	8901	1	2	0	10	11453	1	2	2	10	8862	1	2	1	10	3234989	1	3	0	10	-1	180000000	1	2	0	1	9451	1	1	0	1	180000000	1	3	1	100	
2378938	1	1	2	10	60132	1	2	0	100	40271	1	3	5	100	-1	60323	1	1	1	10	180000000	2	2	0	100	15542	1	1	5	10	243887	1	1	2	100	307792	2	2	4	100	22714	3	3	0	100	333659	1	2	4	100	34631	1	3	0	1000	43253	1	1	0	100	180000000	1	1	1	1	72561	1	3	0	100	180000000	1	3	1	100	98714	1	3	5	1000	20432	1	3	1	100	580822	1	2	4	10	-1	315224	1	1	1	10	180000000	1	2	0	10	180000000	1	2	0	100	
8082	1	2	1	10	1135743	1	3	0	1	19130	1	3	3	1	-1	74292	1	1	1	100	180000000	2	3	0	100	15331	1	3	2	100	180000000	1	2	0	10	359483	2	2	3	1	17221	2	2	1	1	2869813	1	2	2	1000	44285	1	3	0	1000	66879	1	3	0	1	180000000	1	2	1	10	222514	1	1	1	100	180000000	1	1	0	100	12215	1	3	0	10	19352	1	3	0	100	3197305	1	3	5	1000	-1	72646	1	1	0	1000	180000000	1	2	0	1000	180000000	1	2	1	100	
29764	1	2	0	1000	226946	1	3	1	10	18924	1	1	2	1	-1	74410	1	1	0	10	893544	2	2	1	100	180000000	1	2	1	1000	355077	1	1	2	1000	300404	1	1	3	1000	16309	2	2	1	10	2770085	1	1	2	1000	180000000	1	3	1	10	180000000	1	1	0	100	180000000	1	3	0	1000	180000000	1	2	1	10	180000000	1	1	0	1000	16764	1	3	5	100	110441	1	2	2	1000	520022	1	1	2	10	-1	12448	1	1	1	1000	29968	1	1	1	1000	180000000	1	1	1	100	
180000000	1	1	0	10	180000000	1	3	0	10	20786	1	1	4	1	-1	71707	1	1	1	100	51307	1	1	0	10	7896	1	1	3	10	180000000	1	2	0	10	180000000	1	3	1	1	23986	2	3	0	10	449728	1	2	4	100	149267	1	1	4	100	180000000	1	3	1	100	1082265	1	3	0	1000	180000000	1	2	2	100	25615	1	3	1	10	18526	1	3	3	1	13341	1	1	1	1	4111810	1	2	0	10	-1	180000000	1	2	1	1000	29458	1	3	1	10	180000000	1	3	1	1	
35584	1	1	1	10	180000000	1	1	1	1	44106	1	2	3	100	-1	99345	1	1	0	1	180000000	2	2	1	100	8732	1	1	3	10	651533	1	1	4	1000	609704	1	2	3	10	48719	1	3	1	10	140013	1	2	3	1000	226352	1	1	3	10	44533	1	1	0	10	180000000	1	2	0	1000	180000000	1	2	2	10	430723	1	2	1	10	34528	1	1	2	100	9607	1	2	0	1	4541077	1	3	1	1000	-1	10913	1	1	1	1000	81733	1	3	0	100	180000000	1	1	0	100	
7065235	1	2	2	1	620362	1	2	1	1000	11825	1	2	1	10	-1	94324	1	1	0	1000	180000000	1	1	1	100	206957	1	2	4	1000	163898	1	1	3	10	528908	3	3	4	1000	180000000	1	1	0	1000	5169390	1	2	3	100	15784	1	2	1	1	91975	1	3	0	1000	180000000	1	3	0	1000	180000000	1	2	2	100	15253	1	1	1	100	29472	1	2	4	100	12256	1	2	1	1	872089	1	2	3	1	-1	180000000	1	1	1	10	180000000	1	2	0	1000	180000000	1	1	0	1000	
3714156	1	1	2	1	201319	1	3	0	10	107744	1	3	3	1	-1	97410	1	1	0	100	180000000	2	2	1	1000	13283	1	2	1	1	149887	1	1	2	10	1865983	1	1	1	100	23426	2	2	1	1	4074626	1	1	2	10	176757	1	1	2	10	86060	1	1	0	100	225528	1	2	1	100	180000000	1	3	0	10	180000000	1	3	1	100	18868	1	3	5	100	18270	1	2	2	1	4293298	1	2	2	100	-1	59802	1	1	1	1	39234	1	3	1	1	180000000	1	3	0	1	
24121	1	3	1	1000	717076	1	3	0	1000	15575	1	1	1	10	-1	107640	1	1	1	1000	180000000	1	1	1	1	21715	1	1	5	1	143818	1	1	4	10	435672	1	1	2	1	21661	1	1	0	1000	5025493	1	2	3	100	120084	1	1	3	100	36386	1	2	1	1000	282388	1	3	0	1	43587	1	2	0	1	411129	1	1	1	1	85273	1	1	2	1000	11643	1	1	0	10	4110435	1	3	5	1000	-1	14333	1	2	1	100	180000000	1	3	0	10	180000000	1	3	1	100	
6760	1	1	1	1000	286560	1	1	1	100	12524	1	2	1	1000	-1	93476	1	1	1	10	180000000	2	3	0	1	216985	1	1	4	1000	267911	1	2	5	1	624650	1	2	0	10	180000000	1	3	1	1000	3679298	1	1	2	1	13008	1	2	1	1	180000000	1	1	0	100	7054040	1	1	2	1000	111316	1	1	1	10	36162	1	3	1	10	180000000	1	1	1	10	136707	1	2	2	1000	180000000	1	1	1	10	-1	180000000	1	1	0	1000	72554	1	3	0	1000	180000000	1	1	1	100	
3215723	1	1	2	1000	56989	1	2	1	1	51531	1	1	2	100	-1	94344	1	2	1	1000	180000000	2	3	0	100	58443	1	3	0	10	579302	1	3	1	10	451606	1	1	0	100	180000000	1	2	0	10	3865915	1	2	2	10	15397	1	2	0	1	180000000	1	1	0	1000	180000000	1	1	1	1000	180000000	1	2	1	100	180000000	1	2	1	1000	14574	1	3	5	100	146361	1	2	2	1000	904029	1	1	0	1000	-1	180000000	1	1	0	1000	13757	1	1	1	1000	184132	1	1	1	1	
6353	1	1	1	1	128193	1	2	1	1000	98818	1	2	5	100	-1	107465	1	1	1	100	180000000	2	3	0	10	7926	1	1	3	10	597747	1	3	0	1000	180000000	1	3	1	1000	52535	1	3	0	10	574974	1	1	4	10	220483	1	3	2	10	180000000	1	1	1	1000	12141774	1	2	2	1	45051045	1	1	0	10	64053	1	1	1	100	13267	1	2	4	100	17254	1	1	0	100	4288626	1	2	4	1000	-1	2751918	1	1	2	100	180000000	1	1	0	10	355283	1	2	0	10	
3371288	1	1	2	100	53160	1	2	1	1	185792	1	1	3	10	-1	93661	1	1	0	10	180000000	2	3	0	1000	132732	1	1	5	1000	190491	1	1	0	100	588616	1	2	3	10	180000000	1	2	1	1	117977	1	2	3	1000	238308	1	3	2	10	49876	1	1	0	10	7009802	1	1	2	1	180000000	1	3	1	100	180000000	1	3	0	100	100802	1	1	3	1000	69258	1	3	1	10	4165042	1	2	0	1000	-1	3337018	1	2	2	1	180000000	1	1	0	10	180000000	1	2	0	1000	
26984	1	2	1	100	41221	1	1	1	10	22542	1	3	4	100	-1	122116	1	2	0	100	180000000	1	1	1	10	36446	1	3	2	100	565981	1	1	4	1000	1020217	1	3	4	1000	180000000	1	1	1	100	398600	1	1	3	100	98009	1	2	4	1	180000000	1	3	1	100	130809	1	3	0	100	11225	1	2	1	1	180000000	1	2	0	10	35179	1	3	4	1	26866	1	2	2	1	4637567	1	3	0	1000	-1	9810	1	1	0	1000	180000000	1	2	0	1000	180000000	1	3	1	1	
76177	1	1	1	10	180000000	1	1	0	1	54241	1	3	5	100	-1	90929	1	1	0	100	1408878	1	3	0	1000	24609	1	1	1	1	135123	1	1	2	10	432179	1	1	4	1	180000000	1	1	1	10	3912452	1	2	2	10	180000000	1	1	0	1000	180000000	1	3	1	100	12071333	1	2	2	10	180000000	1	2	2	10	180000000	1	1	0	1000	26492	1	3	0	10	11702	1	1	2	1	5577546	1	2	3	100	-1	3873546	1	1	2	1	180000000	1	2	0	10	180000000	1	2	0	1000	
