QueryID	Total Execution Time	Avg Execution Time	Number of Queries per Hour
0	4487168.0	183.1721435277789	1.965364345618439E7
1	4553843.0	185.8939053761685	1.9365885033805516E7
2	4469935.0	182.46866963301628	1.9729414409829225E7
3	0.0	0.0	-1.0
4	4330464.0	176.77527860554355	2.036483850229444E7
5	2.1424484033E10	874575.8269584031	4116.281160571369
6	4303605.0	175.6788586357513	2.04919364114504E7
7	4418582.0	180.37237212719924	1.9958710735706616E7
8	4462306.0	182.15724374413193	1.97631448851782E7
9	4536067.0	185.1682655018982	1.9441776322968774E7
10	4519719.0	184.50091847981386	1.951209798662262E7
11	3.564450919E10	1455056.0962566845	2474.1314161436485
12	4501949.0	183.7755235334939	1.958911573631776E7
13	4385681.0	179.02930971139324	2.0108439259490144E7
14	4393700.0	179.35665591705106	2.0071739080956824E7
15	4527622.0	184.8235294117647	1.9478039465308722E7
16	9.364533081E9	382272.6489366045	9417.362215200017
17	3.1324453844E10	1278705.712699514	2815.3467715413044
18	4489983.0	183.2870555578234	1.964132158184118E7
19	0.0	0.0	-1.0
20	4418453.0	180.36710617626647	1.995929344501345E7
21	4536367.0	185.18051189941625	1.9440490595227417E7
22	4494888.0	183.48728415724375	1.9619888192987233E7
23	0.0	0.0	-1.0
24	0.0	0.0	-1.0
/////////////////////////////////////////////////////////////////////////////
QMpH = 24497