QueryID	Total Execution Time	Avg Execution Time	Number of Queries per Hour
0	2.6157652E7	12115.633163501621	297136.7613576326
1	8.3112611725E10	3.849588315192219E7	93.51649332976126
2	2.9140372E7	13497.161648911533	266722.7446513037
3	0.0	0.0	-1.0
4	2.269253E7	10510.666975451599	342509.1869438974
5	4.893049124E10	2.2663497563686892E7	158.84573816921278
6	3.3982902E7	15740.11208893006	228715.0167457741
7	3.0973389E7	14346.173691523854	250937.9906732195
8	1.0409950685E11	4.8216538605836034E7	74.66317790726403
9	9.9209021752E10	4.595137644835572E7	78.34368147918273
10	4.3198101E7	20008.383974062064	179924.5758511468
11	3.7872266E7	17541.577582213988	205226.69543987678
12	3.3025598E7	15296.710514126911	235344.71654381548
13	3.7958554E7	17581.544233441407	204760.17079048904
14	2.185191559E9	1012131.3381194997	3556.850642218685
15	3.4502725E7	15980.882352941177	225269.16352259132
16	2.6841576E7	12432.411301528486	289565.70955446135
17	1.3284694859E10	6153170.383974062	585.0642474286432
18	2.2920276112E10	1.0616153826771654E7	339.10586251318017
19	0.0	0.0	-1.0
20	1.468053417E9	679969.1602593793	5294.357759735387
21	3.9086765E7	18104.1060676239	198849.91761277764
22	1.657223391E11	7.675884163964799E7	46.90013453955647
23	0.0	0.0	-1.0
24	0.0	0.0	-1.0
/////////////////////////////////////////////////////////////////////////////
QMpH = 2159