QueryID	Total Execution Time	Avg Execution Time	Number of Queries per Hour
0	5.3462375005E10	1733202.846560332	2077.0794411885854
1	2974473.0	96.42978019840498	3.733286535127399E7
2	3236359.0	104.91989236854049	3.4311891851305746E7
3	0.0	0.0	-1.0
4	2905997.0	94.20984892692732	3.821256525729379E7
5	4316423.0	139.93461064643714	2.5726301615944497E7
6	3148354.0	102.0668482137068	3.527100192672107E7
7	4026060.0	130.52129935810154	2.75817051906827E7
8	5892373.0	191.0255138429618	1.8845650131110165E7
9	4904305.0	158.99322440510926	2.2642474315932635E7
10	2997384.0	97.17253452635674	3.704750542473036E7
11	4.7883815427E10	1552350.8859171367	2319.06332045097
12	3305300.0	107.15489852817221	3.359622424590809E7
13	3013694.0	97.70129028074953	3.684700570130876E7
14	1.5844049483E10	513650.05131945794	7008.662786565219
15	3865315.0	125.31008882837321	2.8728732328413077E7
16	8.284966336E9	268591.2706996045	13403.26508237969
17	1.8364407612E10	595357.8296051351	6046.783666870833
18	4961024.0	160.83200414964662	2.238360467516384E7
19	0.0	0.0	-1.0
20	2387371.0	77.39645334889451	4.651375927746462E7
21	2435135.0	78.94491992478765	4.560141429530601E7
22	2438156.0	79.04285806911756	4.554491181040097E7
23	0.0	0.0	-1.0
24	0.0	0.0	-1.0
/////////////////////////////////////////////////////////////////////////////
QMpH = 30846