Query0	 ObjectNumber 	 PredicateNumber 	 Selectivity 	 Limit 	Query1	 ObjectNumber 	 PredicateNumber 	 Selectivity 	 Limit 	Query2	 ObjectNumber 	 PredicateNumber 	 Selectivity 	 Limit 	Query3	 ObjectNumber 	 PredicateNumber 	 Selectivity 	 Limit 	Query4	 ObjectNumber 	 PredicateNumber 	 Selectivity 	 Limit 	Query5	 ObjectNumber 	 PredicateNumber 	 Selectivity 	 Limit 	Query6	 ObjectNumber 	 PredicateNumber 	 Selectivity 	 Limit 	Query7	 ObjectNumber 	 PredicateNumber 	 Selectivity 	 Limit 	Query8	 ObjectNumber 	 PredicateNumber 	 Selectivity 	 Limit 	Query9	 ObjectNumber 	 PredicateNumber 	 Selectivity 	 Limit 	Query10	 ObjectNumber 	 PredicateNumber 	 Selectivity 	 Limit 	Query11	 ObjectNumber 	 PredicateNumber 	 Selectivity 	 Limit 	Query12	 ObjectNumber 	 PredicateNumber 	 Selectivity 	 Limit 	Query13	 ObjectNumber 	 PredicateNumber 	 Selectivity 	 Limit 	Query14	 ObjectNumber 	 PredicateNumber 	 Selectivity 	 Limit 	Query15	 ObjectNumber 	 PredicateNumber 	 Selectivity 	 Limit 	Query16	 ObjectNumber 	 PredicateNumber 	 Selectivity 	 Limit 	Query17	 ObjectNumber 	 PredicateNumber 	 Selectivity 	 Limit 	Query18	 ObjectNumber 	 PredicateNumber 	 Selectivity 	 Limit 	Query19	 ObjectNumber 	 PredicateNumber 	 Selectivity 	 Limit 	Query20	 ObjectNumber 	 PredicateNumber 	 Selectivity 	 Limit 	Query21	 ObjectNumber 	 PredicateNumber 	 Selectivity 	 Limit 	Query22	 ObjectNumber 	 PredicateNumber 	 Selectivity 	 Limit 	
/////////////////////////////////////////////////////////////////////////////
132849	1	2	2	100	933359	1	3	0	10	61085	1	1	1	10	-1	180000000	1	1	1	1	7545832	2	2	0	100	123714143	1	1	3	10	180000000	1	3	3	100	180000000	2	3	0	10	104160	1	3	0	10	180000000	1	1	0	100	121176	1	1	5	1000	140172	1	3	1	1000	180000000	1	2	2	10	148296	1	3	0	100	455712	1	2	1	100	97070	1	3	0	10	180000000	1	1	2	100	151310	1	2	1	1	-1	1392237	1	1	0	10	697819	1	3	0	10	180000000	1	1	0	10	
145290	1	2	1	100	180000000	1	1	0	1000	99136	1	2	2	1000	-1	180000000	1	1	1	10	3117325	1	2	0	100	56748453	1	1	5	10	180000000	1	1	3	100	84534712	1	1	3	1	139242	1	1	1	10	180000000	1	2	2	1000	176781	1	2	0	100	199778	1	3	1	100	36469554	1	1	0	1000	182006	1	2	0	100	309672	1	1	1	1000	209285	1	1	1	10	180000000	1	1	1	100	2969546	1	3	4	10	-1	180000000	1	2	2	1	380200	1	1	0	100	180000000	1	3	0	1000	
